{
  "purchase_order_data": [
    {
      "product": "",
      "sku": "",
      "description": "",
      "qty": "",
      "rate": "",
      "amount": "",
      "weight": "",
      "sale_price": "",
      "pote_profit": ""
    }

  ]
}